{
  "project_info": {
    "project_number": "266741564245",
    "project_id": "covid-19-rec",
    "storage_bucket": "covid-19-rec.appspot.com"
  },
  "client": [
    {
      "client_info": {
        "mobilesdk_app_id": "1:266741564245:android:73b255a2949086f515e5dc",
        "android_client_info": {
          "package_name": "com.daly.covid19.rec"
        }
      },
      "oauth_client": [
        {
          "client_id": "266741564245-t1e00pp1m1v5uvs4nbr0lgb1odqhcotl.apps.googleusercontent.com",
          "client_type": 3
        }
      ],
      "api_key": [
        {
          "current_key": "AIzaSyANxRr7c3qhIDUqp27DvxqodigcBDnBUk0"
        }
      ],
      "services": {
        "appinvite_service": {
          "other_platform_oauth_client": [
            {
              "client_id": "266741564245-t1e00pp1m1v5uvs4nbr0lgb1odqhcotl.apps.googleusercontent.com",
              "client_type": 3
            }
          ]
        }
      }
    }
  ],
  "configuration_version": "1"
}